This is BibTeX, Version 0.99d (TeX Live 2015/Debian)
Capacity: max_strings=35307, hash_size=35307, hash_prime=30011
The top-level auxiliary file: CoraManual.aux
The style file: IEEEtran.bst
Reallocated singl_function (elt_size=4) to 100 items from 50.
Reallocated singl_function (elt_size=4) to 100 items from 50.
Reallocated singl_function (elt_size=4) to 100 items from 50.
Reallocated wiz_functions (elt_size=4) to 6000 items from 3000.
Reallocated singl_function (elt_size=4) to 100 items from 50.
Database file #1: althoff_own.bib
Database file #2: althoff_other.bib
Database file #3: grebenyuk.bib
Repeated entry---line 1 of file grebenyuk.bib
 : @article{Trinchero2016
 :                       ,
I'm skipping whatever remains of this entry
Repeated entry---line 22 of file grebenyuk.bib
 : @article{Nedialkov2004
 :                       ,
I'm skipping whatever remains of this entry
Repeated entry---line 92 of file grebenyuk.bib
 : @article{Neher2007
 :                   ,
I'm skipping whatever remains of this entry
Repeated entry---line 107 of file grebenyuk.bib
 : @article{Makino2003
 :                    ,
I'm skipping whatever remains of this entry
-- IEEEtran.bst version 1.14 (2015/08/26) by Michael Shell.
-- http://www.michaelshell.org/tex/ieeetran/bibtex/
-- See the "IEEEtran_bst_HOWTO.pdf" manual for usage information.
Warning--empty journal in Makino1996
Warning--empty journal in Berz1997

Done.
You've used 47 entries,
            4087 wiz_defined-function locations,
            1122 strings with 15438 characters,
and the built_in function-call counts, 35089 in all, are:
= -- 2795
> -- 713
< -- 304
+ -- 422
- -- 109
* -- 1601
:= -- 5158
add.period$ -- 98
call.type$ -- 47
change.case$ -- 42
chr.to.int$ -- 726
cite$ -- 49
duplicate$ -- 2492
empty$ -- 3044
format.name$ -- 144
if$ -- 8365
int.to.chr$ -- 0
int.to.str$ -- 47
missing$ -- 414
newline$ -- 168
num.names$ -- 49
pop$ -- 969
preamble$ -- 1
purify$ -- 0
quote$ -- 2
skip$ -- 2815
stack$ -- 0
substring$ -- 1732
swap$ -- 1998
text.length$ -- 62
text.prefix$ -- 0
top$ -- 5
type$ -- 47
warning$ -- 2
while$ -- 155
width$ -- 49
write$ -- 465
(There were 4 error messages)
