Dynamics: Bifurcation,Scripted proof,proved,300000,3162,1804,1402,35
Dynamics: Cascaded,skip,skipped,300000,-1,-1,-1,-1
Dynamics: Closed cases,skip,skipped,300000,-1,-1,-1,-1
Dynamics: Conserved quantity,skip,skipped,300000,-1,-1,-1,-1
Dynamics: Darboux equality,skip,skipped,300000,-1,-1,-1,-1
Dynamics: Darboux inequality,skip,skipped,300000,-1,-1,-1,-1
Dynamics: Double integrator,skip,skipped,300000,-1,-1,-1,-1
Dynamics: Exponential decay (1),skip,skipped,300000,-1,-1,-1,-1
Dynamics: Exponential decay (2),skip,skipped,300000,-1,-1,-1,-1
Dynamics: Exponential decay (3),skip,skipped,300000,-1,-1,-1,-1
Dynamics: Exponential growth (1),skip,skipped,300000,-1,-1,-1,-1
Dynamics: Exponential growth (2),skip,skipped,300000,-1,-1,-1,-1
Dynamics: Exponential growth (4),skip,skipped,300000,-1,-1,-1,-1
Dynamics: Exponential growth (5),skip,skipped,300000,-1,-1,-1,-1
Dynamics: Fractional Darboux equality,Scripted proof,proved,300000,3751,1782,1173,2
Dynamics: Nonlinear 1,skip,skipped,300000,-1,-1,-1,-1
Dynamics: Nonlinear 2,skip,skipped,300000,-1,-1,-1,-1
Dynamics: Nonlinear 4,skip,skipped,300000,-1,-1,-1,-1
Dynamics: Nonlinear 5,skip,skipped,300000,-1,-1,-1,-1
Dynamics: Nonlinear differential cut,skip,skipped,300000,-1,-1,-1,-1
Dynamics: Open cases,skip,skipped,300000,-1,-1,-1,-1
Dynamics: Parametric switching between two different damped oscillators,Scripted proof,proved,300000,6969,2924,1828,10
Dynamics: Riccati,skip,skipped,300000,-1,-1,-1,-1
Dynamics: Rotational dynamics (1),skip,skipped,300000,-1,-1,-1,-1
Dynamics: Rotational dynamics (2),skip,skipped,300000,-1,-1,-1,-1
Dynamics: Rotational dynamics (3),skip,skipped,300000,-1,-1,-1,-1
Dynamics: Single integrator,skip,skipped,300000,-1,-1,-1,-1
Dynamics: Single integrator time,skip,skipped,300000,-1,-1,-1,-1
Dynamics: Spiral to equilibrium,skip,skipped,300000,-1,-1,-1,-1
Dynamics: Triple integrator,skip,skipped,300000,-1,-1,-1,-1
LICS: Example 1 Continuous car accelerates forward,skip,skipped,300000,-1,-1,-1,-1
LICS: Example 2 Single car drives forward,skip,skipped,300000,-1,-1,-1,-1
LICS: Example 3a event-triggered car drives forward,skip,skipped,300000,-1,-1,-1,-1
LICS: Example 4a safe stopping of time-triggered car,skip,skipped,300000,-1,-1,-1,-1
LICS: Example 4b progress of time-triggered car,skip,skipped,300000,-1,-1,-1,-1
LICS: Example 4c relative safety of time-triggered car,skip,skipped,300000,-1,-1,-1,-1
LICS: Example 5 Controllability Equivalence,skip,skipped,300000,-1,-1,-1,-1
LICS: Example 6 MPC Acceleration Equivalence,skip,skipped,300000,-1,-1,-1,-1
LICS: Example 7 Model-Predictive Control Design Car,skip,skipped,300000,-1,-1,-1,-1
STTT Tutorial: Example 1,skip,skipped,300000,-1,-1,-1,-1
STTT Tutorial: Example 10,skip,skipped,300000,-1,-1,-1,-1
STTT Tutorial: Example 2,skip,skipped,300000,-1,-1,-1,-1
STTT Tutorial: Example 3a,skip,skipped,300000,-1,-1,-1,-1
STTT Tutorial: Example 4a,skip,skipped,300000,-1,-1,-1,-1
STTT Tutorial: Example 4b,skip,skipped,300000,-1,-1,-1,-1
STTT Tutorial: Example 4c,skip,skipped,300000,-1,-1,-1,-1
STTT Tutorial: Example 5,skip,skipped,300000,-1,-1,-1,-1
STTT Tutorial: Example 6,skip,skipped,300000,-1,-1,-1,-1
STTT Tutorial: Example 7,skip,skipped,300000,-1,-1,-1,-1
STTT Tutorial: Example 9a,skip,skipped,300000,-1,-1,-1,-1
STTT Tutorial: Example 9b,skip,skipped,300000,-1,-1,-1,-1
Static semantics correctness: Assignment 1,skip,skipped,300000,-1,-1,-1,-1
Static semantics correctness: Assignment 2,skip,skipped,300000,-1,-1,-1,-1
Static semantics correctness: Assignment 3,skip,skipped,300000,-1,-1,-1,-1
Static semantics correctness: Assignment 4,skip,skipped,300000,-1,-1,-1,-1
Static semantics correctness: Assignment 5,skip,skipped,300000,-1,-1,-1,-1
Static semantics correctness: Assignment 6,skip,skipped,300000,-1,-1,-1,-1
Static semantics correctness: Assignment 7,skip,skipped,300000,-1,-1,-1,-1
Static semantics correctness: Assignment 8,skip,skipped,300000,-1,-1,-1,-1
Static semantics correctness: Assignment 9,skip,skipped,300000,-1,-1,-1,-1
1D Saddle Node,Scripted proof,proved,300000,3253,1922,1287,13
Ahmadi Parrilo Krstic,skip,skipped,300000,-1,-1,-1,-1
Alongi Nelson Ex_4_1_9 page 143,skip,skipped,300000,-1,-1,-1,-1
Arrowsmith Place Fig_1_29 page 14,skip,skipped,300000,-1,-1,-1,-1
Arrowsmith Place Fig_1_30 page 14,skip,skipped,300000,-1,-1,-1,-1
Arrowsmith Place Fig_1_31 page 14,skip,skipped,300000,-1,-1,-1,-1
Arrowsmith Place Fig_1_32 page 14,skip,skipped,300000,-1,-1,-1,-1
Arrowsmith Place Fig_1_35 page 17,skip,skipped,300000,-1,-1,-1,-1
Arrowsmith Place Fig_3_11 page 83,skip,skipped,300000,-1,-1,-1,-1
Arrowsmith Place Fig_3_1 page 72,skip,skipped,300000,-1,-1,-1,-1
Arrowsmith Place Fig_3_5c page 79,skip,skipped,300000,-1,-1,-1,-1
Arrowsmith Place Fig_3_5e page 79,Scripted proof,proved,300000,5789,2375,1862,6
Arrowsmith Place Fig_3_8 page 82,skip,skipped,300000,-1,-1,-1,-1
Arrowsmith Place Fig_3_9 page 83,skip,skipped,300000,-1,-1,-1,-1
Ben Sassi Girard 20104 Moore-Greitzer Jet,Scripted proof,proved,300000,18618,11288,1785,6
Ben Sassi Girard Sankaranarayanan 2014 Fitzhugh-Nagumo,Scripted proof,proved,300000,10098,5884,1172,6
Bhatia Szego Ex_2_4 page 68,Scripted proof,proved,300000,46983,27603,4500,6
Collin Goriely page 60,Scripted proof,proved,300000,7720,3300,2612,6
Dai Gan Xia Zhan JSC14 Ex. 1,skip,skipped,300000,-1,-1,-1,-1
Dai Gan Xia Zhan JSC14 Ex. 2,Scripted proof,proved,300000,50786,31352,4321,6
Dai Gan Xia Zhan JSC14 Ex. 5,Scripted proof,proved,300000,19221,11634,1829,6
Darboux Christoffel Int Goriely page 58,Scripted proof,proved,300000,28987,18212,3013,6
Djaballah Chapoutot Kieffer Bouissou 2015 Ex. 1,Scripted proof,proved,300000,7296,3945,1034,6
Dumortier Llibre Artes Ex. 10_11,skip,skipped,300000,-1,-1,-1,-1
Dumortier Llibre Artes Ex. 10_11b,skip,skipped,300000,-1,-1,-1,-1
Dumortier Llibre Artes Ex. 10_15_i,skip,skipped,300000,-1,-1,-1,-1
Dumortier Llibre Artes Ex. 10_15_ii,skip,skipped,300000,-1,-1,-1,-1
Dumortier Llibre Artes Ex. 10_9,skip,skipped,300000,-1,-1,-1,-1
Dumortier Llibre Artes Ex. 1_11a,skip,skipped,300000,-1,-1,-1,-1
Dumortier Llibre Artes Ex. 1_11b,skip,skipped,300000,-1,-1,-1,-1
Dumortier Llibre Artes Ex. 1_9a,skip,skipped,300000,-1,-1,-1,-1
Dumortier Llibre Artes Ex. 1_9b,skip,skipped,300000,-1,-1,-1,-1
Dumortier Llibre Artes Ex. 5_13,skip,skipped,300000,-1,-1,-1,-1
Dumortier Llibre Artes Ex. 5_1_ii,skip,skipped,300000,-1,-1,-1,-1
Dumortier Llibre Artes Ex. 5_2,Scripted proof,proved,300000,3837,1538,1088,6
Dumortier Llibre Artes Ex. 5_2_ii,skip,skipped,300000,-1,-1,-1,-1
Fitzhugh Nagumo Ben Sassi Girard 2,Scripted proof,proved,300000,10195,5918,1208,6
Forsman Phd Ex 6_14 page 119,skip,skipped,300000,-1,-1,-1,-1
Forsman Phd Ex 6_1 page 99,skip,skipped,300000,-1,-1,-1,-1
Hamiltonian System 1,Scripted proof,proved,300000,9665,6015,2017,6
Invariant 3-dim sphere,Scripted proof,proved,300000,8420,3398,1833,6
KeYmaera Nonlinear 1,skip,skipped,300000,-1,-1,-1,-1
KeYmaera Nonlinear Diffcut,skip,skipped,300000,-1,-1,-1,-1
Liu Zhan Zhao Emsoft11 Example 25,Scripted proof,proved,300000,4494,1859,1572,6
Locally stable nonlinear system,Scripted proof,proved,300000,4279,1874,798,8
Lotka Volterra Fourth Quadrant,skip,skipped,300000,-1,-1,-1,-1
MIT astronautics Lyapunov,Scripted proof,proved,300000,7554,3372,1622,8
Man Maccallum Goriely Page 57,skip,skipped,300000,-1,-1,-1,-1
Prajna PhD Thesis 2-4-1 Page 31,skip,skipped,300000,-1,-1,-1,-1
Shimizu Morioka System,skip,skipped,300000,-1,-1,-1,-1
Stable Limit Cycle 1,skip,skipped,300000,-1,-1,-1,-1
Stable Limit Cycle 2,Scripted proof,proved,300000,5751,2598,1602,6
Strogatz Example 6_3_2,skip,skipped,300000,-1,-1,-1,-1
Strogatz Example 6_8_3,skip,skipped,300000,-1,-1,-1,-1
Strogatz Exercise 6_1_5,Scripted proof,proved,300000,9840,5381,3626,6
Strogatz Exercise 6_1_9 Dipole,skip,skipped,300000,-1,-1,-1,-1
Strogatz Exercise 6_6_1 Reversible System,skip,skipped,300000,-1,-1,-1,-1
Strogatz Exercise 6_6_2 Limit Cycle,Scripted proof,proved,300000,8542,4148,2830,6
Strogatz Exercise 7_3_5,Scripted proof,proved,300000,10799,6005,2744,6
Synthetic Example 1,skip,skipped,300000,-1,-1,-1,-1
Unstable Unit Circle 1,skip,skipped,300000,-1,-1,-1,-1
Unstable Unit Circle 2,skip,skipped,300000,-1,-1,-1,-1
Unstable Unit Circle 3,skip,skipped,300000,-1,-1,-1,-1
Van der Pol Fourth Quadrant,skip,skipped,300000,-1,-1,-1,-1
Vinograd System Chicone 1_145 Page 80,skip,skipped,300000,-1,-1,-1,-1
Wien bridge oscillator,Scripted proof,proved,300000,4946,2232,805,8
Wiggins Example 17_1_2,skip,skipped,300000,-1,-1,-1,-1
Wiggins Example 18_1_2,skip,skipped,300000,-1,-1,-1,-1
Wiggins Example 18_7_3_n,Scripted proof,proved,300000,8653,4465,2454,6
ATC: 2 Aircraft Tangential Roundabout Maneuver,Scripted proof,proved,1500000,8841,2156,1620,15
ATC: 3 Aircraft Tangential Roundabout Maneuver,Scripted proof,proved,1500000,60768,16101,5757,17
ATC: 4 Aircraft Tangential Roundabout Maneuver,Scripted proof,proved,1500000,245679,54873,10582,38
ETCS: Essentials,Scripted proof,proved,1500000,17552,8780,6129,11
ETCS: Proposition 1 (Controllability),Scripted proof,proved,1500000,14429,7302,6545,7
ETCS: Proposition 4 (Reactivity),Scripted proof,proved,1500000,32092,14901,11972,13
Robot collision avoidance in two-dimensional space: Passive safety,Scripted proof,proved,1500000,487961,426850,52880,73
Robot collision avoidance in two-dimensional space: Static safety,Scripted proof,proved,1500000,174994,149205,31373,71
